EESchema Schematic File Version 4
EELAYER 30 0
EELAYER END
$Descr A4 11693 8268
encoding utf-8
Sheet 1 2
Title ""
Date ""
Rev ""
Comp ""
Comment1 ""
Comment2 ""
Comment3 ""
Comment4 ""
$EndDescr
$Sheet
S 6950 1150 700  1050
U 61B4A8D6
F0 "player1_units" 50
F1 "Display.sch" 50
F2 "~LE" I L 6950 1950 50 
F3 "A" I L 6950 1500 50 
F4 "B" I L 6950 1600 50 
F5 "C" I L 6950 1700 50 
F6 "D" I L 6950 1800 50 
F7 "GND" I L 6950 2100 50 
F8 "5V" I L 6950 1350 50 
F9 "12V" I L 6950 1250 50 
$EndSheet
Entry Wire Line
	7850 1800 7750 1900
Entry Wire Line
	7850 1700 7750 1800
Entry Wire Line
	7850 1600 7750 1700
Entry Wire Line
	7850 1500 7750 1600
Entry Bus Bus
	7650 2400 7750 2300
Text Label 7950 1500 0    50   ~ 0
A
Text Label 7950 1600 0    50   ~ 0
B
Text Label 7950 1700 0    50   ~ 0
C
Text Label 7950 1800 0    50   ~ 0
D
Entry Wire Line
	6050 2350 5950 2450
Entry Wire Line
	6050 2250 5950 2350
Entry Wire Line
	6050 2150 5950 2250
Entry Wire Line
	6050 2050 5950 2150
Wire Wire Line
	5950 2150 5850 2150
Wire Wire Line
	5950 2250 5850 2250
Wire Wire Line
	5850 2350 5950 2350
Wire Wire Line
	5950 2450 5850 2450
Text Label 5950 2150 2    50   ~ 0
A
Text Label 5950 2250 2    50   ~ 0
B
Text Label 5950 2350 2    50   ~ 0
C
Text Label 5950 2450 2    50   ~ 0
D
$Comp
L 74xx:74LS245 U?
U 1 1 61B6C26F
P 5350 2650
F 0 "U?" H 5350 3631 50  0000 C CNN
F 1 "74LS245" H 5350 3540 50  0000 C CNN
F 2 "" H 5350 2650 50  0001 C CNN
F 3 "http://www.ti.com/lit/gpn/sn74LS245" H 5350 2650 50  0001 C CNN
	1    5350 2650
	1    0    0    -1  
$EndComp
Wire Wire Line
	7850 1950 7850 2650
Text Label 5900 2550 0    50   ~ 0
p1u
Text Label 5900 2650 0    50   ~ 0
p1t
Text Label 5900 2750 0    50   ~ 0
p2u
Text Label 5900 2850 0    50   ~ 0
p2t
$Comp
L Connector_Generic:Conn_02x20_Odd_Even J?
U 1 1 61B89900
P 3750 2500
F 0 "J?" H 3800 3617 50  0000 C CNN
F 1 "Conn_02x20_Odd_Even" H 3800 3526 50  0000 C CNN
F 2 "" H 3750 2500 50  0001 C CNN
F 3 "~" H 3750 2500 50  0001 C CNN
	1    3750 2500
	1    0    0    -1  
$EndComp
Wire Bus Line
	6150 1900 6250 1900
Wire Bus Line
	6350 2000 6350 2300
Wire Wire Line
	5850 2550 6750 2550
Wire Wire Line
	5850 2750 9050 2750
Wire Wire Line
	5850 2850 10150 2850
Entry Bus Bus
	6450 2400 6350 2300
Entry Bus Bus
	6250 1900 6350 2000
Entry Bus Bus
	6050 2000 6150 1900
Wire Wire Line
	7850 1950 8050 1950
Wire Wire Line
	7950 2100 8050 2100
Wire Wire Line
	5850 2650 7850 2650
Wire Wire Line
	7850 1500 8050 1500
Wire Wire Line
	7850 1600 8050 1600
Wire Wire Line
	7850 1700 8050 1700
Wire Wire Line
	7850 1800 8050 1800
$Comp
L power:GND #PWR?
U 1 1 61B6FF07
P 7950 2100
F 0 "#PWR?" H 7950 1850 50  0001 C CNN
F 1 "GND" H 7955 1927 50  0000 C CNN
F 2 "" H 7950 2100 50  0001 C CNN
F 3 "" H 7950 2100 50  0001 C CNN
	1    7950 2100
	1    0    0    -1  
$EndComp
Entry Wire Line
	6750 1800 6650 1900
Entry Wire Line
	6750 1700 6650 1800
Entry Wire Line
	6750 1600 6650 1700
Entry Wire Line
	6750 1500 6650 1600
Entry Bus Bus
	6550 2400 6650 2300
Text Label 6850 1500 0    50   ~ 0
A
Text Label 6850 1600 0    50   ~ 0
B
Text Label 6850 1700 0    50   ~ 0
C
Text Label 6850 1800 0    50   ~ 0
D
Wire Wire Line
	6750 1950 6950 1950
Wire Wire Line
	6850 2100 6950 2100
Wire Wire Line
	6750 1500 6950 1500
Wire Wire Line
	6750 1600 6950 1600
Wire Wire Line
	6750 1700 6950 1700
Wire Wire Line
	6750 1800 6950 1800
$Comp
L power:GND #PWR?
U 1 1 61B7361A
P 6850 2100
F 0 "#PWR?" H 6850 1850 50  0001 C CNN
F 1 "GND" H 6855 1927 50  0000 C CNN
F 2 "" H 6850 2100 50  0001 C CNN
F 3 "" H 6850 2100 50  0001 C CNN
	1    6850 2100
	1    0    0    -1  
$EndComp
$Comp
L power:+5V #PWR?
U 1 1 61B73620
P 6650 1250
F 0 "#PWR?" H 6650 1100 50  0001 C CNN
F 1 "+5V" H 6665 1423 50  0000 C CNN
F 2 "" H 6650 1250 50  0001 C CNN
F 3 "" H 6650 1250 50  0001 C CNN
	1    6650 1250
	1    0    0    -1  
$EndComp
Entry Wire Line
	10150 1800 10050 1900
Entry Wire Line
	10150 1700 10050 1800
Entry Wire Line
	10150 1600 10050 1700
Entry Wire Line
	10150 1500 10050 1600
Entry Bus Bus
	9950 2400 10050 2300
Text Label 10250 1500 0    50   ~ 0
A
Text Label 10250 1600 0    50   ~ 0
B
Text Label 10250 1700 0    50   ~ 0
C
Text Label 10250 1800 0    50   ~ 0
D
Wire Wire Line
	10150 1950 10350 1950
Wire Wire Line
	10250 2100 10350 2100
Wire Wire Line
	10150 1500 10350 1500
Wire Wire Line
	10150 1600 10350 1600
Wire Wire Line
	10150 1700 10350 1700
Wire Wire Line
	10150 1800 10350 1800
$Comp
L power:GND #PWR?
U 1 1 61B78425
P 10250 2100
F 0 "#PWR?" H 10250 1850 50  0001 C CNN
F 1 "GND" H 10255 1927 50  0000 C CNN
F 2 "" H 10250 2100 50  0001 C CNN
F 3 "" H 10250 2100 50  0001 C CNN
	1    10250 2100
	1    0    0    -1  
$EndComp
Entry Wire Line
	9050 1800 8950 1900
Entry Wire Line
	9050 1700 8950 1800
Entry Wire Line
	9050 1600 8950 1700
Entry Wire Line
	9050 1500 8950 1600
Entry Bus Bus
	8850 2400 8950 2300
Text Label 9150 1500 0    50   ~ 0
A
Text Label 9150 1600 0    50   ~ 0
B
Text Label 9150 1700 0    50   ~ 0
C
Text Label 9150 1800 0    50   ~ 0
D
Wire Wire Line
	9050 1950 9250 1950
Wire Wire Line
	9150 2100 9250 2100
Wire Wire Line
	9050 1500 9250 1500
Wire Wire Line
	9050 1600 9250 1600
Wire Wire Line
	9050 1700 9250 1700
Wire Wire Line
	9050 1800 9250 1800
$Comp
L power:GND #PWR?
U 1 1 61B79A33
P 9150 2100
F 0 "#PWR?" H 9150 1850 50  0001 C CNN
F 1 "GND" H 9155 1927 50  0000 C CNN
F 2 "" H 9150 2100 50  0001 C CNN
F 3 "" H 9150 2100 50  0001 C CNN
	1    9150 2100
	1    0    0    -1  
$EndComp
Wire Wire Line
	9050 1950 9050 2750
Wire Wire Line
	10150 1950 10150 2850
Wire Wire Line
	6750 2550 6750 1950
$Comp
L power:GND #PWR?
U 1 1 61B8389E
P 5350 3450
F 0 "#PWR?" H 5350 3200 50  0001 C CNN
F 1 "GND" H 5355 3277 50  0000 C CNN
F 2 "" H 5350 3450 50  0001 C CNN
F 3 "" H 5350 3450 50  0001 C CNN
	1    5350 3450
	1    0    0    -1  
$EndComp
$Comp
L power:+5V #PWR?
U 1 1 61B840CC
P 5350 1850
F 0 "#PWR?" H 5350 1700 50  0001 C CNN
F 1 "+5V" H 5365 2023 50  0000 C CNN
F 2 "" H 5350 1850 50  0001 C CNN
F 3 "" H 5350 1850 50  0001 C CNN
	1    5350 1850
	1    0    0    -1  
$EndComp
Wire Wire Line
	6650 1350 6650 1250
Wire Wire Line
	6850 1250 6950 1250
$Comp
L power:+12V #PWR?
U 1 1 61BA9A84
P 6850 1250
F 0 "#PWR?" H 6850 1100 50  0001 C CNN
F 1 "+12V" H 6865 1423 50  0000 C CNN
F 2 "" H 6850 1250 50  0001 C CNN
F 3 "" H 6850 1250 50  0001 C CNN
	1    6850 1250
	1    0    0    -1  
$EndComp
Wire Wire Line
	6650 1350 6950 1350
$Sheet
S 8050 1150 700  1050
U 61BB0314
F0 "player1_tens" 50
F1 "Display.sch" 50
F2 "~LE" I L 8050 1950 50 
F3 "A" I L 8050 1500 50 
F4 "B" I L 8050 1600 50 
F5 "C" I L 8050 1700 50 
F6 "D" I L 8050 1800 50 
F7 "GND" I L 8050 2100 50 
F8 "5V" I L 8050 1350 50 
F9 "12V" I L 8050 1250 50 
$EndSheet
$Comp
L power:+5V #PWR?
U 1 1 61BB031A
P 7750 1250
F 0 "#PWR?" H 7750 1100 50  0001 C CNN
F 1 "+5V" H 7765 1423 50  0000 C CNN
F 2 "" H 7750 1250 50  0001 C CNN
F 3 "" H 7750 1250 50  0001 C CNN
	1    7750 1250
	1    0    0    -1  
$EndComp
Wire Wire Line
	7750 1350 7750 1250
Wire Wire Line
	7950 1250 8050 1250
$Comp
L power:+12V #PWR?
U 1 1 61BB0322
P 7950 1250
F 0 "#PWR?" H 7950 1100 50  0001 C CNN
F 1 "+12V" H 7965 1423 50  0000 C CNN
F 2 "" H 7950 1250 50  0001 C CNN
F 3 "" H 7950 1250 50  0001 C CNN
	1    7950 1250
	1    0    0    -1  
$EndComp
Wire Wire Line
	7750 1350 8050 1350
$Sheet
S 9250 1150 700  1050
U 61BB1F9F
F0 "player2_units" 50
F1 "Display.sch" 50
F2 "~LE" I L 9250 1950 50 
F3 "A" I L 9250 1500 50 
F4 "B" I L 9250 1600 50 
F5 "C" I L 9250 1700 50 
F6 "D" I L 9250 1800 50 
F7 "GND" I L 9250 2100 50 
F8 "5V" I L 9250 1350 50 
F9 "12V" I L 9250 1250 50 
$EndSheet
$Comp
L power:+5V #PWR?
U 1 1 61BB1FA5
P 8950 1250
F 0 "#PWR?" H 8950 1100 50  0001 C CNN
F 1 "+5V" H 8965 1423 50  0000 C CNN
F 2 "" H 8950 1250 50  0001 C CNN
F 3 "" H 8950 1250 50  0001 C CNN
	1    8950 1250
	1    0    0    -1  
$EndComp
Wire Wire Line
	8950 1350 8950 1250
Wire Wire Line
	9150 1250 9250 1250
$Comp
L power:+12V #PWR?
U 1 1 61BB1FAD
P 9150 1250
F 0 "#PWR?" H 9150 1100 50  0001 C CNN
F 1 "+12V" H 9165 1423 50  0000 C CNN
F 2 "" H 9150 1250 50  0001 C CNN
F 3 "" H 9150 1250 50  0001 C CNN
	1    9150 1250
	1    0    0    -1  
$EndComp
Wire Wire Line
	8950 1350 9250 1350
$Sheet
S 10350 1150 700  1050
U 61BB3BD9
F0 "player2_tens" 50
F1 "Display.sch" 50
F2 "~LE" I L 10350 1950 50 
F3 "A" I L 10350 1500 50 
F4 "B" I L 10350 1600 50 
F5 "C" I L 10350 1700 50 
F6 "D" I L 10350 1800 50 
F7 "GND" I L 10350 2100 50 
F8 "5V" I L 10350 1350 50 
F9 "12V" I L 10350 1250 50 
$EndSheet
$Comp
L power:+5V #PWR?
U 1 1 61BB3BDF
P 10050 1250
F 0 "#PWR?" H 10050 1100 50  0001 C CNN
F 1 "+5V" H 10065 1423 50  0000 C CNN
F 2 "" H 10050 1250 50  0001 C CNN
F 3 "" H 10050 1250 50  0001 C CNN
	1    10050 1250
	1    0    0    -1  
$EndComp
Wire Wire Line
	10050 1350 10050 1250
Wire Wire Line
	10250 1250 10350 1250
$Comp
L power:+12V #PWR?
U 1 1 61BB3BE7
P 10250 1250
F 0 "#PWR?" H 10250 1100 50  0001 C CNN
F 1 "+12V" H 10265 1423 50  0000 C CNN
F 2 "" H 10250 1250 50  0001 C CNN
F 3 "" H 10250 1250 50  0001 C CNN
	1    10250 1250
	1    0    0    -1  
$EndComp
Wire Wire Line
	10050 1350 10350 1350
Wire Bus Line
	6450 2400 9950 2400
Wire Bus Line
	6050 2000 6050 2350
Wire Bus Line
	7750 1600 7750 2300
Wire Bus Line
	6650 1600 6650 2300
Wire Bus Line
	10050 1600 10050 2300
Wire Bus Line
	8950 1600 8950 2300
$EndSCHEMATC
